1. データ・ハンドリング（基礎）
…
hr <- read_csv("data/hr96-21.csv",
               na = ".")  

hr96_21.csv
は1996年に衆院選挙に小選挙区が導入されて以来実施された 9
回の衆議院選挙（1996, 2000, 2003, 2005, 2009, 2012, 2014, 2017,
2021）の結果のデータ

読み取った選挙データを確認

読み込んだデータを出力してみる

hr

# A tibble: 9,660 × 22
    year pref  ku      kun    wl  rank nocand seito j_name gender name  previous
   <dbl> <chr> <chr> <dbl> <dbl> <dbl>  <dbl> <chr> <chr>  <chr>  <chr>    <dbl>
 1  1996 愛知  aichi     1     1     1      7 新進  河村…  male   KAWA…        2
 2  1996 愛知  aichi     1     0     2      7 自民  今枝…  male   IMAE…        2
 3  1996 愛知  aichi     1     0     3      7 民主  佐藤…  male   SATO…        2
 4  1996 愛知  aichi     1     0     4      7 共産  岩中…  female IWAN…        0
 5  1996 愛知  aichi     1     0     5      7 文化… 伊東…  female ITO,…        0
 6  1996 愛知  aichi     1     0     6      7 国民… 山田浩 male   YAMA…        0
 7  1996 愛知  aichi     1     0     7      7 無所  浅野…  male   ASAN…        0
 8  1996 愛知  aichi     2     1     1      8 新進  青木…  male   AOKI…        2
 9  1996 愛知  aichi     2     0     2      8 自民  田辺…  male   TANA…        0
10  1996 愛知  aichi     2     2     3      8 民主  古川…  male   FURU…        0
# … with 9,650 more rows, and 10 more variables: age <dbl>, exp <dbl>,
#   status <dbl>, vote <dbl>, voteshare <dbl>, eligible <dbl>, turnout <dbl>,
#   seshu_dummy <dbl>, jiban_seshu <chr>, nojiban_seshu <chr>
…
 [1] "year"          "pref"          "ku"            "kun"          
 [5] "wl"            "rank"          "nocand"        "seito"        
 [9] "j_name"        "gender"        "name"          "previous"     
[13] "age"           "exp"           "status"        "vote"         
[17] "voteshare"     "eligible"      "turnout"       "seshu_dummy"  
[21] "jiban_seshu"   "nojiban_seshu"

データフレーム (hr) から year,
ku, kun, seito,
j_name 列だけを抜き出す

hr %>%   # hr から
  select(year, ku, kun, seito, j_name) # year, ku, kun, seito, j_name を抜き出す

# A tibble: 9,660 × 5
    year ku      kun seito          j_name    
   <dbl> <chr> <dbl> <chr>          <chr>     
 1  1996 aichi     1 新進           河村たかし
 2  1996 aichi     1 自民           今枝敬雄  
 3  1996 aichi     1 民主           佐藤泰介  
 4  1996 aichi     1 共産           岩中美保子
 5  1996 aichi     1 文化フォーラム 伊東マサコ
 6  1996 aichi     1 国民党         山田浩    
 7  1996 aichi     1 無所           浅野光雪  
 8  1996 aichi     2 新進           青木宏之  
 9  1996 aichi     2 自民           田辺広雄  
10  1996 aichi     2 民主           古川元久  
# … with 9,650 more rows

列の抽出（変数の位置が連続している場合）

抜き出したい変数の位置が連続している場合

「:」を使って抜き出すことができる

hr %>%                                        # hr から
  select(c(year:j_name)) # 1 番目の year から 9 番目の j_name まで抜き出す

# A tibble: 9,660 × 9
    year pref  ku      kun    wl  rank nocand seito          j_name    
   <dbl> <chr> <chr> <dbl> <dbl> <dbl>  <dbl> <chr>          <chr>     
 1  1996 愛知  aichi     1     1     1      7 新進           河村たかし
 2  1996 愛知  aichi     1     0     2      7 自民           今枝敬雄  
 3  1996 愛知  aichi     1     0     3      7 民主           佐藤泰介  
 4  1996 愛知  aichi     1     0     4      7 共産           岩中美保子
 5  1996 愛知  aichi     1     0     5      7 文化フォーラム 伊東マサコ
 6  1996 愛知  aichi     1     0     6      7 国民党         山田浩    
 7  1996 愛知  aichi     1     0     7      7 無所           浅野光雪  
 8  1996 愛知  aichi     2     1     1      8 新進           青木宏之  
 9  1996 愛知  aichi     2     0     2      8 自民           田辺広雄  
10  1996 愛知  aichi     2     2     3      8 民主           古川元久  
# … with 9,650 more rows
…
列の抽出と変数名の変更を同時に行う

select()関数のもう一つの特徴は、変数名の「変更」と「抽出」を同時に行えること

抽出する際、新しい変数名 = 既存の変数名と入力する

例えば、hr から year, ku, kun, seito, j_name, vote
を抽出し、j_name の変数名を namae
に変更したい場合は以下のように入力する

hr %>% 
  select(year, ku, kun, seito, namae = j_name, vote)

# A tibble: 9,660 × 6
    year ku      kun seito          namae       vote
   <dbl> <chr> <dbl> <chr>          <chr>      <dbl>
 1  1996 aichi     1 新進           河村たかし 66876
 2  1996 aichi     1 自民           今枝敬雄   42969
 3  1996 aichi     1 民主           佐藤泰介   33503
 4  1996 aichi     1 共産           岩中美保子 22209
 5  1996 aichi     1 文化フォーラム 伊東マサコ   616
 6  1996 aichi     1 国民党         山田浩       566
 7  1996 aichi     1 無所           浅野光雪     312
 8  1996 aichi     2 新進           青木宏之   56101
 9  1996 aichi     2 自民           田辺広雄   44938
10  1996 aichi     2 民主           古川元久   43804
# … with 9,650 more rows

変数名のみを変更したい場合

rename()関数を使う

使い方は select()関数と同じ

例えば、hr の ku を senkyoku
に、seito を party
に変更する場合は次のように入力する

hr %>% 
  rename(senkyoku = ku, party = seito)

# A tibble: 9,660 × 22
    year pref  senkyoku   kun    wl  rank nocand party       j_name gender name 
   <dbl> <chr> <chr>    <dbl> <dbl> <dbl>  <dbl> <chr>       <chr>  <chr>  <chr>
 1  1996 愛知  aichi        1     1     1      7 新進        河村…  male   KAWA…
 2  1996 愛知  aichi        1     0     2      7 自民        今枝…  male   IMAE…
 3  1996 愛知  aichi        1     0     3      7 民主        佐藤…  male   SATO…
 4  1996 愛知  aichi        1     0     4      7 共産        岩中…  female IWAN…
 5  1996 愛知  aichi        1     0     5      7 文化フォー… 伊東…  female ITO,…
 6  1996 愛知  aichi        1     0     6      7 国民党      山田浩 male   YAMA…
 7  1996 愛知  aichi        1     0     7      7 無所        浅野…  male   ASAN…
 8  1996 愛知  aichi        2     1     1      8 新進        青木…  male   AOKI…
 9  1996 愛知  aichi        2     0     2      8 自民        田辺…  male   TANA…
10  1996 愛知  aichi        2     2     3      8 民主        古川…  male   FURU…
# … with 9,650 more rows, and 11 more variables: previous <dbl>, age <dbl>,
#   exp <dbl>, status <dbl>, vote <dbl>, voteshare <dbl>, eligible <dbl>,
#   turnout <dbl>, seshu_dummy <dbl>, jiban_seshu <chr>, nojiban_seshu <chr>
…
22 の変数の中から 20 個を抽出したい場合は
select()内に20の変数名を入れれば良い

しかしこれは非効率

select()関数は変数名の前に「!」
(推奨)、または「-」を付けることで、特定の列を除外することができる

例えば、hr から year と pref
列だけを除外したければ次のように入力する

hr %>% 
  select(!c(year, pref))

# A tibble: 9,660 × 20
   ku      kun    wl  rank nocand seito       j_name gender name  previous   age
   <chr> <dbl> <dbl> <dbl>  <dbl> <chr>       <chr>  <chr>  <chr>    <dbl> <dbl>
 1 aichi     1     1     1      7 新進        河村…  male   KAWA…        2    47
 2 aichi     1     0     2      7 自民        今枝…  male   IMAE…        2    72
 3 aichi     1     0     3      7 民主        佐藤…  male   SATO…        2    53
 4 aichi     1     0     4      7 共産        岩中…  female IWAN…        0    43
 5 aichi     1     0     5      7 文化フォー… 伊東…  female ITO,…        0    51
 6 aichi     1     0     6      7 国民党      山田浩 male   YAMA…        0    51
 7 aichi     1     0     7      7 無所        浅野…  male   ASAN…        0    45
 8 aichi     2     1     1      8 新進        青木…  male   AOKI…        2    51
 9 aichi     2     0     2      8 自民        田辺…  male   TANA…        0    71
10 aichi     2     2     3      8 民主        古川…  male   FURU…        0    30
# … with 9,650 more rows, and 9 more variables: exp <dbl>, status <dbl>,
#   vote <dbl>, voteshare <dbl>, eligible <dbl>, turnout <dbl>,
#   seshu_dummy <dbl>, jiban_seshu <chr>, nojiban_seshu <chr>

また、2
つ以上の変数を除外する場合、変数名を「c()」や、「:」を使ってまとめて選ばないことができる

例えば、year から nocand までの 7
つの変数は連続しているので、これらをまとめて選ばないことができる

hr %>% 
  select(!c(year:nocand))

# A tibble: 9,660 × 15
   seito       j_name gender name  previous   age     exp status  vote voteshare
   <chr>       <chr>  <chr>  <chr>    <dbl> <dbl>   <dbl>  <dbl> <dbl>     <dbl>
 1 新進        河村…  male   KAWA…        2    47  9.83e6      1 66876      40  
 2 自民        今枝…  male   IMAE…        2    72  9.31e6      2 42969      25.7
 3 民主        佐藤…  male   SATO…        2    53  9.23e6      1 33503      20.1
 4 共産        岩中…  female IWAN…        0    43  2.18e6      0 22209      13.3
 5 文化フォー… 伊東…  female ITO,…        0    51 NA           0   616       0.4
 6 国民党      山田浩 male   YAMA…        0    51 NA           0   566       0.3
 7 無所        浅野…  male   ASAN…        0    45 NA           0   312       0.2
 8 新進        青木…  male   AOKI…        2    51  1.29e7      1 56101      32.9
 9 自民        田辺…  male   TANA…        0    71  1.65e7      2 44938      26.4
10 民主        古川…  male   FURU…        0    30  1.14e7      0 43804      25.7
# … with 9,650 more rows, and 5 more variables: eligible <dbl>, turnout <dbl>,
#   seshu_dummy <dbl>, jiban_seshu <chr>, nojiban_seshu <chr>
…
 [1] "year"          "pref"          "ku"            "kun"          
 [5] "wl"            "rank"          "nocand"        "seito"        
 [9] "j_name"        "gender"        "name"          "previous"     
[13] "age"           "exp"           "status"        "vote"         
[17] "voteshare"     "eligible"      "turnout"       "seshu_dummy"  
[21] "jiban_seshu"   "nojiban_seshu"

例えば、hr から seshu
で終わる列を抽出する場合は

hr %>% 
  select(j_name, ends_with("seshu"))

# A tibble: 9,660 × 3
   j_name     jiban_seshu                    nojiban_seshu
   <chr>      <chr>                          <chr>        
 1 河村たかし <NA>                           <NA>         
 2 今枝敬雄   <NA>                           <NA>         
 3 佐藤泰介   <NA>                           <NA>         
 4 岩中美保子 <NA>                           <NA>         
 5 伊東マサコ <NA>                           <NA>         
 6 山田浩     <NA>                           <NA>         
 7 浅野光雪   <NA>                           <NA>         
 8 青木宏之   <NA>                           <NA>         
 9 田辺広雄   伯父＝加藤鐐五郎（衆議院議員） <NA>         
10 古川元久   <NA>                           <NA>         
# … with 9,650 more rows

特定の文字列で終わる列を選択: ends_with()

例えば、hr から ku
で始まる列を抽出する場合は

hr %>% 
  select(j_name, starts_with("ku"))

# A tibble: 9,660 × 3
   j_name     ku      kun
   <chr>      <chr> <dbl>
 1 河村たかし aichi     1
 2 今枝敬雄   aichi     1
 3 佐藤泰介   aichi     1
 4 岩中美保子 aichi     1
 5 伊東マサコ aichi     1
 6 山田浩     aichi     1
 7 浅野光雪   aichi     1
 8 青木宏之   aichi     2
 9 田辺広雄   aichi     2
10 古川元久   aichi     2
# … with 9,650 more rows
…
unique() 関数を使って year
の値を確認する

unique(hr$year)

[1] 1996 2000 2003 2005 2009 2012 2014 2017 2021

2021年総選挙のデータだけを取り出す

2021年総選挙のデータだけを取り出したければ

hr %>% 
  filter(year == 2021)

# A tibble: 857 × 22
    year pref  ku      kun    wl  rank nocand seito j_name gender name  previous
   <dbl> <chr> <chr> <dbl> <dbl> <dbl>  <dbl> <chr> <chr>  <chr>  <chr>    <dbl>
 1  2021 愛知  aichi     1     1     1      3 自民  熊田…  male   KUMA…        3
 2  2021 愛知  aichi     1     2     2      3 立憲  吉田…  male   YOSH…        2
 3  2021 愛知  aichi     1     0     3      3 Ｎ党  門田…  female KADO…        0
 4  2021 愛知  aichi     2     1     1      2 国民  古川…  male   FURU…        8
 5  2021 愛知  aichi     2     2     2      2 自民  中川…  male   NAKA…        0
 6  2021 愛知  aichi     3     1     1      2 立憲  近藤…  male   KOND…        8
 7  2021 愛知  aichi     3     2     2      2 自民  池田…  male   IKED…        3
 8  2021 愛知  aichi     4     1     1      3 自民  工藤…  male   KUDO…        3
 9  2021 愛知  aichi     4     2     2      3 立憲  牧義夫 male   MAKI…        6
10  2021 愛知  aichi     4     0     3      3 維新  中田…  female NAKA…        0
# … with 847 more rows, and 10 more variables: age <dbl>, exp <dbl>,
#   status <dbl>, vote <dbl>, voteshare <dbl>, eligible <dbl>, turnout <dbl>,
#   seshu_dummy <dbl>, jiban_seshu <chr>, nojiban_seshu <chr>
…
AND
演算子（&）もしくは（,）を使う

例えば、hr
から次の条件を同時に満たす行を抽出してみる

・条件 1: 2021年総選挙に出馬した候補者 (year == 2009)

・条件 2: 女性の候補者 (gender == "female")

hr %>% 
  filter(year == 2021 & gender == "female") %>% 
  select(pref, kun, seito, j_name, gender, rank, wl)　# 表示する変数を 7 つだけ選択

# A tibble: 140 × 7
   pref    kun seito j_name     gender  rank    wl
   <chr> <dbl> <chr> <chr>      <chr>  <dbl> <dbl>
 1 愛知      1 Ｎ党  門田節代   female     3     0
 2 愛知      4 維新  中田千代   female     3     0
 3 愛知      5 維新  岬麻紀     female     3     2
 4 愛知      7 共産  須山初美   female     3     0
 5 愛知     10 れい  安井美沙子 female     4     0
 6 愛媛      2 国民  石井智恵   female     2     0
 7 茨城      4 維新  武藤優子   female     2     0
 8 茨城      4 共産  大内久美子 female     3     0
 9 茨城      5 共産  飯田美弥子 female     3     0
10 茨城      6 自民  国光文乃   female     1     1
# … with 130 more rows
…
次の条件のいずれか一つを満たす行を抽出してみる

・条件 1: 2021年総選挙に出馬した立憲民主党候補者
(seito  == "立憲")

・条件 1: 2021年総選挙に出馬した社民党候補者
(seito  == "社民")

hr %>% 
  filter(year == 2021) %>%                        # 2021年総選挙だけのデータを取り出す
  filter(seito  == "立憲" | seito == "社民") %>%  # 立憲もしくは社民の候補者  
  select(pref, kun, seito, j_name, gender, rank, wl)　# 表示する変数を 7 つだけ選択

# A tibble: 223 × 7
   pref    kun seito j_name   gender  rank    wl
   <chr> <dbl> <chr> <chr>    <chr>  <dbl> <dbl>
 1 愛知      1 立憲  吉田統彦 male       2     2
 2 愛知      3 立憲  近藤昭一 male       1     1
 3 愛知      4 立憲  牧義夫   male       2     2
 4 愛知      5 立憲  西川厚志 male       2     0
 5 愛知      6 立憲  松田功   male       2     0
 6 愛知      7 立憲  森本和義 male       2     0
 7 愛知      8 立憲  伴野豊   male       2     2
 8 愛知      9 立憲  岡本充功 male       2     0
 9 愛知     10 立憲  藤原規真 male       3     0
10 愛知     12 立憲  重徳和彦 male       1     1
# … with 213 more rows
…
・条件 1: 2021年総選挙に出馬した社民党候補者
(seito  == "立憲")

・条件 1: 2021年総選挙に出馬したみんなの党候補者
(seito  == "社民")

・条件 3: 小選挙区当選者 (wl  == 1)

hr %>% 
  filter(year == 2021) %>%                       　  # 2021年総選挙だけのデータを取り出す
  filter(seito  == "立憲" | seito == "社民") %>% 
  filter(wl == 1) %>% 
  select(pref, kun, seito, j_name, gender, rank, wl) # 表示する変数を 7 つだけ選

# A tibble: 58 × 7
   pref    kun seito j_name     gender  rank    wl
   <chr> <dbl> <chr> <chr>      <chr>  <dbl> <dbl>
 1 愛知      3 立憲  近藤昭一   male       1     1
 2 愛知     12 立憲  重徳和彦   male       1     1
 3 愛知     13 立憲  大西健介   male       1     1
 4 沖縄      2 社民  新垣邦男   male       1     1
 5 岩手      1 立憲  階猛       male       1     1
 6 宮崎      1 立憲  渡辺創     male       1     1
 7 宮城      2 立憲  鎌田さゆり female     1     1
 8 宮城      5 立憲  安住淳     male       1     1
 9 広島      6 立憲  佐藤公治   male       1     1
10 香川      1 立憲  小川淳也   male       1     1
# … with 48 more rows

2021年総選挙における社民党とみんなの党の小選挙区当選者は 48 人

%in% 演算子

OR 演算子と
AND 演算子の組み合わせコードを%in%
演算子を使ってさらに効率化できる

hr %>% 
  filter(year == 2021) %>%                       　  # 2021年総選挙だけのデータを取り出す
  filter(seito %in% c("立憲","社民"), wl == 1) %>% 
  select(pref, kun, seito, j_name, gender, rank, wl) # 表示する変数を 7 つだけ選

# A tibble: 58 × 7
   pref    kun seito j_name     gender  rank    wl
   <chr> <dbl> <chr> <chr>      <chr>  <dbl> <dbl>
 1 愛知      3 立憲  近藤昭一   male       1     1
 2 愛知     12 立憲  重徳和彦   male       1     1
 3 愛知     13 立憲  大西健介   male       1     1
 4 沖縄      2 社民  新垣邦男   male       1     1
 5 岩手      1 立憲  階猛       male       1     1
 6 宮崎      1 立憲  渡辺創     male       1     1
 7 宮城      2 立憲  鎌田さゆり female     1     1
 8 宮城      5 立憲  安住淳     male       1     1
 9 広島      6 立憲  佐藤公治   male       1     1
10 香川      1 立憲  小川淳也   male       1     1
# … with 48 more rows
…
mean(hr$exp, na.rm = TRUE)

[1] 7551393

解決策②:

欠損値が含まれているケースを 予め除外する:
drop_na()

hr %>% 
  drop_na(exp) %>% 
  select(year, j_name, exp) 

# A tibble: 6,829 × 3
    year j_name          exp
   <dbl> <chr>         <dbl>
 1  1996 河村たかし  9828097
 2  1996 今枝敬雄    9311555
 3  1996 佐藤泰介    9231284
 4  1996 岩中美保子  2177203
 5  1996 青木宏之   12940178
 6  1996 田辺広雄   16512426
 7  1996 古川元久   11435567
 8  1996 石山淳一    2128510
 9  1996 藤原美智子  3270533
10  1996 吉田幸弘   11245219
# … with 6,819 more rows
…
