1. データ・ハンドリング（基礎）
…
hr <- read_csv("data/hr96-24.csv",
               na = ".")  

hr96_21.csv は1996年に衆院選挙に小選挙区が導入されて以来実施された 9
回の衆議院選挙（1996, 2000, 2003, 2005, 2009, 2012, 2014, 2017, 2021,
2024）の結果のデータ

読み取った選挙データを確認

読み込んだデータを出力してみる

hr

# A tibble: 10,773 × 22
    year pref  ku      kun    wl  rank nocand seito j_name gender name  previous
   <dbl> <chr> <chr> <dbl> <dbl> <dbl>  <dbl> <chr> <chr>  <chr>  <chr>    <dbl>
 1  1996 愛知  aichi     1     1     1      7 新進  河村…  male   KAWA…        2
 2  1996 愛知  aichi     1     0     2      7 自民  今枝…  male   IMAE…        2
 3  1996 愛知  aichi     1     0     3      7 民主  佐藤…  male   SATO…        2
 4  1996 愛知  aichi     1     0     4      7 共産  岩中…  female IWAN…        0
 5  1996 愛知  aichi     1     0     5      7 文化… 伊東…  female ITO,…        0
 6  1996 愛知  aichi     1     0     6      7 国民… 山田浩 male   YAMA…        0
 7  1996 愛知  aichi     1     0     7      7 無所  浅野…  male   ASAN…        0
 8  1996 愛知  aichi     2     1     1      8 新進  青木…  male   AOKI…        2
 9  1996 愛知  aichi     2     0     2      8 自民  田辺…  male   TANA…        0
10  1996 愛知  aichi     2     2     3      8 民主  古川…  male   FURU…        0
# ℹ 10,763 more rows
# ℹ 10 more variables: age <dbl>, exp <dbl>, status <dbl>, vote <dbl>,
#   voteshare <dbl>, eligible <dbl>, turnout <dbl>, seshu_dummy <dbl>,
#   jiban_seshu <chr>, nojiban_seshu <chr>
…
 [1] "year"          "pref"          "ku"            "kun"          
 [5] "wl"            "rank"          "nocand"        "seito"        
 [9] "j_name"        "gender"        "name"          "previous"     
[13] "age"           "exp"           "status"        "vote"         
[17] "voteshare"     "eligible"      "turnout"       "seshu_dummy"  
[21] "jiban_seshu"   "nojiban_seshu"

データフレーム (hr) から year, ku,
kun, seito, j_name
列だけを抜き出す

hr %>%   # hr から
  select(year, ku, kun, seito, j_name) # year, ku, kun, seito, j_name を抜き出す

# A tibble: 10,773 × 5
    year ku      kun seito          j_name    
   <dbl> <chr> <dbl> <chr>          <chr>     
 1  1996 aichi     1 新進           河村たかし
 2  1996 aichi     1 自民           今枝敬雄  
 3  1996 aichi     1 民主           佐藤泰介  
 4  1996 aichi     1 共産           岩中美保子
 5  1996 aichi     1 文化フォーラム 伊東マサコ
 6  1996 aichi     1 国民党         山田浩    
 7  1996 aichi     1 無所           浅野光雪  
 8  1996 aichi     2 新進           青木宏之  
 9  1996 aichi     2 自民           田辺広雄  
10  1996 aichi     2 民主           古川元久  
# ℹ 10,763 more rows

列の抽出（変数の位置が連続している場合）

抜き出したい変数の位置が連続している場合
「:」を使って抜き出すことができる

hr %>%                    # hr から
  select(c(year:j_name)) # 1 番目の year から 9 番目の j_name まで抜き出す

# A tibble: 10,773 × 9
    year pref  ku      kun    wl  rank nocand seito          j_name    
   <dbl> <chr> <chr> <dbl> <dbl> <dbl>  <dbl> <chr>          <chr>     
 1  1996 愛知  aichi     1     1     1      7 新進           河村たかし
 2  1996 愛知  aichi     1     0     2      7 自民           今枝敬雄  
 3  1996 愛知  aichi     1     0     3      7 民主           佐藤泰介  
 4  1996 愛知  aichi     1     0     4      7 共産           岩中美保子
 5  1996 愛知  aichi     1     0     5      7 文化フォーラム 伊東マサコ
 6  1996 愛知  aichi     1     0     6      7 国民党         山田浩    
 7  1996 愛知  aichi     1     0     7      7 無所           浅野光雪  
 8  1996 愛知  aichi     2     1     1      8 新進           青木宏之  
 9  1996 愛知  aichi     2     0     2      8 自民           田辺広雄  
10  1996 愛知  aichi     2     2     3      8 民主           古川元久  
# ℹ 10,763 more rows
…
列の抽出と変数名の変更を同時に行う

select()関数のもう一つの特徴は、変数名の「変更」と「抽出」を同時に行えること

抽出する際、新しい変数名 = 既存の変数名と入力する

例えば、hr から year, ku,
kun, seito, j_name,
vote を抽出し、j_name の変数名を
namae に変更したい場合は以下のように入力する

hr %>% 
  select(year, ku, kun, seito, namae = j_name, vote)

# A tibble: 10,773 × 6
    year ku      kun seito          namae       vote
   <dbl> <chr> <dbl> <chr>          <chr>      <dbl>
 1  1996 aichi     1 新進           河村たかし 66876
 2  1996 aichi     1 自民           今枝敬雄   42969
 3  1996 aichi     1 民主           佐藤泰介   33503
 4  1996 aichi     1 共産           岩中美保子 22209
 5  1996 aichi     1 文化フォーラム 伊東マサコ   616
 6  1996 aichi     1 国民党         山田浩       566
 7  1996 aichi     1 無所           浅野光雪     312
 8  1996 aichi     2 新進           青木宏之   56101
 9  1996 aichi     2 自民           田辺広雄   44938
10  1996 aichi     2 民主           古川元久   43804
# ℹ 10,763 more rows

変数名のみを変更したい場合

rename()関数を使う

使い方は select()関数と同じ

例えば、hr の ku を senkyoku
に、seito を party
に変更する場合は次のように入力する

hr %>% 
  rename(senkyoku = ku, party = seito)

# A tibble: 10,773 × 22
    year pref  senkyoku   kun    wl  rank nocand party       j_name gender name 
   <dbl> <chr> <chr>    <dbl> <dbl> <dbl>  <dbl> <chr>       <chr>  <chr>  <chr>
 1  1996 愛知  aichi        1     1     1      7 新進        河村…  male   KAWA…
 2  1996 愛知  aichi        1     0     2      7 自民        今枝…  male   IMAE…
 3  1996 愛知  aichi        1     0     3      7 民主        佐藤…  male   SATO…
 4  1996 愛知  aichi        1     0     4      7 共産        岩中…  female IWAN…
 5  1996 愛知  aichi        1     0     5      7 文化フォー… 伊東…  female ITO,…
 6  1996 愛知  aichi        1     0     6      7 国民党      山田浩 male   YAMA…
 7  1996 愛知  aichi        1     0     7      7 無所        浅野…  male   ASAN…
 8  1996 愛知  aichi        2     1     1      8 新進        青木…  male   AOKI…
 9  1996 愛知  aichi        2     0     2      8 自民        田辺…  male   TANA…
10  1996 愛知  aichi        2     2     3      8 民主        古川…  male   FURU…
# ℹ 10,763 more rows
# ℹ 11 more variables: previous <dbl>, age <dbl>, exp <dbl>, status <dbl>,
#   vote <dbl>, voteshare <dbl>, eligible <dbl>, turnout <dbl>,
#   seshu_dummy <dbl>, jiban_seshu <chr>, nojiban_seshu <chr>
…
22 の変数の中から 20 個を抽出したい場合は

select()内に20の変数名を入れれば良い
しかしこれは非効率

select()関数は変数名の前に「!」
(推奨)、または「-」を付けることで、特定の列を除外することができる

例えば、hr から year と pref
列だけを除外したければ次のように入力する

hr %>% 
  select(!c(year, pref))

# A tibble: 10,773 × 20
   ku      kun    wl  rank nocand seito       j_name gender name  previous   age
   <chr> <dbl> <dbl> <dbl>  <dbl> <chr>       <chr>  <chr>  <chr>    <dbl> <dbl>
 1 aichi     1     1     1      7 新進        河村…  male   KAWA…        2    47
 2 aichi     1     0     2      7 自民        今枝…  male   IMAE…        2    72
 3 aichi     1     0     3      7 民主        佐藤…  male   SATO…        2    53
 4 aichi     1     0     4      7 共産        岩中…  female IWAN…        0    43
 5 aichi     1     0     5      7 文化フォー… 伊東…  female ITO,…        0    51
 6 aichi     1     0     6      7 国民党      山田浩 male   YAMA…        0    51
 7 aichi     1     0     7      7 無所        浅野…  male   ASAN…        0    45
 8 aichi     2     1     1      8 新進        青木…  male   AOKI…        2    51
 9 aichi     2     0     2      8 自民        田辺…  male   TANA…        0    71
10 aichi     2     2     3      8 民主        古川…  male   FURU…        0    30
# ℹ 10,763 more rows
# ℹ 9 more variables: exp <dbl>, status <dbl>, vote <dbl>, voteshare <dbl>,
#   eligible <dbl>, turnout <dbl>, seshu_dummy <dbl>, jiban_seshu <chr>,
#   nojiban_seshu <chr>

また、2
つ以上の変数を除外する場合、変数名を「c()」や、「:」を使ってまとめて選ばないことができる

例えば、year から nocand までの 7
つの変数は連続しているので、これらをまとめて選ばないことができる

hr %>% 
  select(!c(year:nocand))

# A tibble: 10,773 × 15
   seito       j_name gender name  previous   age     exp status  vote voteshare
   <chr>       <chr>  <chr>  <chr>    <dbl> <dbl>   <dbl>  <dbl> <dbl>     <dbl>
 1 新進        河村…  male   KAWA…        2    47  9.83e6      1 66876      40  
 2 自民        今枝…  male   IMAE…        2    72  9.31e6      2 42969      25.7
 3 民主        佐藤…  male   SATO…        2    53  9.23e6      1 33503      20.1
 4 共産        岩中…  female IWAN…        0    43  2.18e6      0 22209      13.3
 5 文化フォー… 伊東…  female ITO,…        0    51 NA           0   616       0.4
 6 国民党      山田浩 male   YAMA…        0    51 NA           0   566       0.3
 7 無所        浅野…  male   ASAN…        0    45 NA           0   312       0.2
 8 新進        青木…  male   AOKI…        2    51  1.29e7      1 56101      32.9
 9 自民        田辺…  male   TANA…        0    71  1.65e7      2 44938      26.4
10 民主        古川…  male   FURU…        0    30  1.14e7      0 43804      25.7
# ℹ 10,763 more rows
# ℹ 5 more variables: eligible <dbl>, turnout <dbl>, seshu_dummy <dbl>,
#   jiban_seshu <chr>, nojiban_seshu <chr>
…
 [1] "year"          "pref"          "ku"            "kun"          
 [5] "wl"            "rank"          "nocand"        "seito"        
 [9] "j_name"        "gender"        "name"          "previous"     
[13] "age"           "exp"           "status"        "vote"         
[17] "voteshare"     "eligible"      "turnout"       "seshu_dummy"  
[21] "jiban_seshu"   "nojiban_seshu"

例えば、hr から seshu
で終わる列を抽出する場合は

hr %>% 
  select(j_name, ends_with("seshu"))

# A tibble: 10,773 × 3
   j_name     jiban_seshu                    nojiban_seshu
   <chr>      <chr>                          <chr>        
 1 河村たかし <NA>                           <NA>         
 2 今枝敬雄   <NA>                           <NA>         
 3 佐藤泰介   <NA>                           <NA>         
 4 岩中美保子 <NA>                           <NA>         
 5 伊東マサコ <NA>                           <NA>         
 6 山田浩     <NA>                           <NA>         
 7 浅野光雪   <NA>                           <NA>         
 8 青木宏之   <NA>                           <NA>         
 9 田辺広雄   伯父＝加藤鐐五郎（衆議院議員） <NA>         
10 古川元久   <NA>                           <NA>         
# ℹ 10,763 more rows

特定の文字列で終わる列を選択: ends_with()

例えば、hr から ku
で始まる列を抽出する場合は

hr %>% 
  select(j_name, starts_with("ku"))

# A tibble: 10,773 × 3
   j_name     ku      kun
   <chr>      <chr> <dbl>
 1 河村たかし aichi     1
 2 今枝敬雄   aichi     1
 3 佐藤泰介   aichi     1
 4 岩中美保子 aichi     1
 5 伊東マサコ aichi     1
 6 山田浩     aichi     1
 7 浅野光雪   aichi     1
 8 青木宏之   aichi     2
 9 田辺広雄   aichi     2
10 古川元久   aichi     2
# ℹ 10,763 more rows
…
unique() 関数を使って year
の値を確認する

unique(hr$year)

 [1] 1996 2000 2003 2005 2009 2012 2014 2017 2021 2024

2024年総選挙のデータだけを取り出す

2024年総選挙のデータだけを取り出したければ

hr %>% 
  filter(year == 2024)

# A tibble: 1,113 × 22
    year pref  ku      kun    wl  rank nocand seito j_name gender name  previous
   <dbl> <chr> <chr> <dbl> <dbl> <dbl>  <dbl> <chr> <chr>  <chr>  <chr>    <dbl>
 1  2024 愛知  aichi     1     1     1      4 諸派  河村…  male   KAWA…        5
 2  2024 愛知  aichi     1     0     2      4 立憲  吉田…  male   YOSH…        3
 3  2024 愛知  aichi     1     0     3      4 自民  熊田…  male   KUMA…        4
 4  2024 愛知  aichi     1     0     4      4 維新  山本…  male   YAMA…        0
 5  2024 愛知  aichi     2     1     1      4 国民  古川…  male   FURU…        9
 6  2024 愛知  aichi     2     0     2      4 自民  中川…  male   NAKA…        1
 7  2024 愛知  aichi     2     0     3      4 維新  室園…  male   MURO…        0
 8  2024 愛知  aichi     2     0     4      4 共産  酒井…  male   SAKA…        0
 9  2024 愛知  aichi     3     1     1      5 立憲  近藤…  male   KOND…        9
10  2024 愛知  aichi     3     0     2      5 自民  水野…  male   MIZU…        0
# ℹ 1,103 more rows
# ℹ 10 more variables: age <dbl>, exp <dbl>, status <dbl>, vote <dbl>,
#   voteshare <dbl>, eligible <dbl>, turnout <dbl>, seshu_dummy <dbl>,
#   jiban_seshu <chr>, nojiban_seshu <chr>
…
2 つの条件を同時に満たす行を取り出す

AND 演算子（&）もしくは（,）を使う

例えば、hr から次の条件を同時に満たす行を抽出してみる

・条件 1: 2024年総選挙に出馬した候補者 (year == 2009)

・条件 2: 女性の候補者 (gender == "female")

hr %>% 
  filter(year == 2024 & gender == "female") %>% 
  select(pref, kun, seito, j_name, gender, rank, wl)　# 表示する変数を 7 つだけ選択

# A tibble: 244 × 7
   pref    kun seito j_name     gender  rank    wl
   <chr> <dbl> <chr> <chr>      <chr>  <dbl> <dbl>
 1 愛知      3 参政  杉本純子   female     5     0
 2 愛知      4 維新  中田千代   female     3     0
 3 愛知      4 諸派  麻生知沙   female     4     0
 4 愛知      5 維新  岬麻紀     female     3     0
 5 愛知      7 国民  日野紗里亜 female     1     1
 6 愛知      9 共産  伊藤恵子   female     3     0
 7 愛知     11 国民  丹野みどり female     1     1
 8 愛知     14 立憲  大嶽理恵   female     2     2
 9 愛知     15 立憲  小山千帆   female     3     2
10 秋田      3 立憲  小川幾代   female     3     0
# ℹ 234 more rows
…
次の条件のいずれか一つを満たす行を抽出してみる

・条件 1: 2024年総選挙に出馬した立憲民主党候補者
(seito  == "立憲")

・条件 1: 2024年総選挙に出馬した社民党候補者
(seito  == "社民")

hr %>% 
  filter(year == 2024) %>%                        # 2024年総選挙だけのデータを取り出す
  filter(seito  == "立憲" | seito == "社民") %>%  # 立憲もしくは社民の候補者  
  select(pref, kun, seito, j_name, gender, rank, wl)　# 表示する変数を 7 つだけ選択

# A tibble: 217 × 7
   pref    kun seito j_name   gender  rank    wl
   <chr> <dbl> <chr> <chr>    <chr>  <dbl> <dbl>
 1 愛知      1 立憲  吉田統彦 male       2     0
 2 愛知      3 立憲  近藤昭一 male       1     1
 3 愛知      4 立憲  牧義夫   male       1     1
 4 愛知      5 立憲  西川厚志 male       1     1
 5 愛知      6 社民  大西雅人 male       3     0
 6 愛知      8 立憲  伴野豊   male       1     1
 7 愛知      9 立憲  岡本充功 male       1     1
 8 愛知     10 立憲  藤原規真 male       1     1
 9 愛知     12 立憲  重徳和彦 male       1     1
10 愛知     13 立憲  大西健介 male       1     1
# ℹ 207 more rows
…
・条件 1: 2024年総選挙に出馬した立憲民主党の候補者
(seito  == "立憲")

・条件 1: 2024年総選挙に出馬した社民党の候補者
(seito  == "社民")

・条件 3: 小選挙区当選者 (wl  == 1)

hr %>% 
  filter(year == 2024) %>%                       　  # 2024年総選挙だけのデータを取り出す
  filter(seito  == "立憲" | seito == "社民") %>%  
  filter(wl == 1) %>% 
  select(pref, kun, seito, j_name, gender, rank, wl) # 表示する変数を 7 つだけ選ぶ

# A tibble: 105 × 7
   pref    kun seito j_name   gender  rank    wl
   <chr> <dbl> <chr> <chr>    <chr>  <dbl> <dbl>
 1 愛知      3 立憲  近藤昭一 male       1     1
 2 愛知      4 立憲  牧義夫   male       1     1
 3 愛知      5 立憲  西川厚志 male       1     1
 4 愛知      8 立憲  伴野豊   male       1     1
 5 愛知      9 立憲  岡本充功 male       1     1
 6 愛知     10 立憲  藤原規真 male       1     1
 7 愛知     12 立憲  重徳和彦 male       1     1
 8 愛知     13 立憲  大西健介 male       1     1
 9 秋田      2 立憲  緑川貴士 male       1     1
10 青森      3 立憲  岡田華子 female     1     1
# ℹ 95 more rows

2024年総選挙において小選挙区で当選した立憲民主党と社民党の候補者総数は
48 人

%in% 演算子

OR 演算子と AND 演算子の組み合わせコードを%in%
演算子を使ってさらに効率化できる

hr %>% 
  filter(year == 2024) %>%                       　  # 2024年総選挙だけのデータを取り出す
  filter(seito %in% c("立憲","社民"), wl == 1) %>% 
  select(pref, kun, seito, j_name, gender, rank, wl) # 表示する変数を 7 つだけ選ぶ

# A tibble: 105 × 7
   pref    kun seito j_name   gender  rank    wl
   <chr> <dbl> <chr> <chr>    <chr>  <dbl> <dbl>
 1 愛知      3 立憲  近藤昭一 male       1     1
 2 愛知      4 立憲  牧義夫   male       1     1
 3 愛知      5 立憲  西川厚志 male       1     1
 4 愛知      8 立憲  伴野豊   male       1     1
 5 愛知      9 立憲  岡本充功 male       1     1
 6 愛知     10 立憲  藤原規真 male       1     1
 7 愛知     12 立憲  重徳和彦 male       1     1
 8 愛知     13 立憲  大西健介 male       1     1
 9 秋田      2 立憲  緑川貴士 male       1     1
10 青森      3 立憲  岡田華子 female     1     1
# ℹ 95 more rows
…
