9. 記述統計学
…
政党別選挙費用の推移

group_by() 関数は 2
つ以上の変数でのグルーピングも可能

政党ごとにどれだけ選挙費用を使っているかを時系列で調べたいとする

hr の year と seito
でデータをグループ化し、exp の平均値を計算してみる

hr |> 
  group_by(year, seito) |> 
  summarise(Mean_exp = mean(exp, na.rm = TRUE))

# A tibble: 136 × 3
# Groups:   year [11]
   year  seito                   Mean_exp
   <fct> <chr>                      <dbl>
 1 1996  さわやか神戸・市民の会      NaN 
 2 1996  共産                    3158354.
 3 1996  国民党                      NaN 
 4 1996  市民新党にいがた        3044160 
 5 1996  政事公団太平会             5540 
 6 1996  文化フォーラム              NaN 
 7 1996  新党さきがけ           13030901 
 8 1996  新社会                  4545681 
 9 1996  新進                   12395369.
10 1996  日本新進                1898969 
# ℹ 126 more rows
…
2014年総選挙の時点での民主党は、2017年に「立憲」と「希望」に分裂

ここでは、「立憲」を「民主党」の後継政党と見なして分析してみる

# `ggplot` で文字バケしない設定（マックユーザーのみ）  
theme_set(theme_classic(base_size = 10,
                        base_family = "HiraginoSans-W3"))

hr |>  
  group_by(year, seito) |> 
  summarise(Mean_exp = mean(exp, na.rm = TRUE)) |> 
  filter(seito == "自民" | seito == "民主" | seito == "立憲" ) 

# A tibble: 21 × 3
# Groups:   year [11]
   year  seito  Mean_exp
   <fct> <chr>     <dbl>
 1 1996  民主   9961458.
 2 1996  自民  14460093.
 3 2000  民主  10207109.
 4 2000  自民  14251423.
 5 2003  民主   9772028.
 6 2003  自民  12821990.
 7 2005  民主   9574473.
 8 2005  自民  12710075.
 9 2009  民主   7802585.
10 2009  自民  11374974.
# ℹ 11 more rows
…
政党別立候補者数の推移

グルーピングを行う場合、各グループに属するケース数を調べたい場合

例えば、1996年から2024年までの総選挙ごとに政党が使った選挙費用の平均値だけでなく、立候補者の人数も表示したい時はコマンドに
n()を加える

hr |> 
  filter(seito == "自民" | seito == "民主" |seito == "立憲") |> 
  group_by(year, seito) |> 
  summarise(Mean_exp = mean(exp, na.rm = TRUE),
            Cand_number = n())

# A tibble: 21 × 4
# Groups:   year [11]
   year  seito  Mean_exp Cand_number
   <fct> <chr>     <dbl>       <int>
 1 1996  民主   9961458.         143
 2 1996  自民  14460093.         288
 3 2000  民主  10207109.         242
 4 2000  自民  14251423.         271
 5 2003  民主   9772028.         267
 6 2003  自民  12821990.         277
 7 2005  民主   9574473.         289
 8 2005  自民  12710075.         290
 9 2009  民主   7802585.         271
10 2009  自民  11374974.         291
# ℹ 11 more rows
…
 [1] "year"          "pref"          "ku"            "kun"          
 [5] "rank"          "wl"            "nocand"        "seito"        
 [9] "j_name"        "name"          "previous"      "gender"       
[13] "age"           "exp"           "status"        "vote"         
[17] "voteshare"     "eligible"      "turnout"       "seshu_dummy"  
[21] "jiban_seshu"   "nojiban_seshu" "exppv"        

最後に exppv が追加されている

dplyr::mutate() を使うと次のようなコードになる

hr |> 
  dplyr::mutate(exppv = exp / eligible)

# A tibble: 11,892 × 23
   year  pref  ku    kun   rank  wl    nocand seito j_name name  previous gender
   <fct> <chr> <chr> <fct> <fct> <fct>  <dbl> <chr> <chr>  <chr>    <dbl> <chr> 
 1 1996  愛知  aichi 1     7     0          7 無所  浅野光雪…… ASAN…        0 male  
 2 1996  愛知  aichi 1     6     0          7 国民党…… 山田浩 YAMA…        0 male  
 3 1996  愛知  aichi 1     5     0          7 文化フォ… 伊東マサコ… ITO,…        0 female
 4 1996  愛知  aichi 1     4     0          7 共産  岩中美保子… IWAN…        0 female
 5 1996  愛知  aichi 1     3     0          7 民主  佐藤泰介…… SATO…        1 male  
 6 1996  愛知  aichi 1     2     0          7 自民  今枝敬雄…… IMAE…        3 male  
 7 1996  愛知  aichi 1     1     1          7 新進  河村たかし… KAWA…        1 male  
 8 1996  愛知  aichi 2     8     0          8 国民党…… 山崎義章…… YAMA…        0 male  
 9 1996  愛知  aichi 2     7     0          8 無所  村松陽一…… MURA…        0 male  
10 1996  愛知  aichi 2     6     0          8 文化フォ… 石川和己…… ISHI…        0 male  
# ℹ 11,882 more rows
# ℹ 11 more variables: age <dbl>, exp <dbl>, status <fct>, vote <dbl>,
#   voteshare <dbl>, eligible <dbl>, turnout <dbl>, seshu_dummy <dbl>,
#   jiban_seshu <chr>, nojiban_seshu <chr>, exppv <dbl>
…
