33. ロジスティック回帰分析
…
hr21 <- hr %>%
  select(year, wl, previous, exp) %>%
  filter(year == 2021) %>% 
  mutate(wlsmd = ifelse(wl == 1, 1, 0)) |> 
  mutate(expm = exp / 1000000) |> 
  
  select(year, wlsmd, expm, previous)

データフレーム hr21 の中身を表示する

hr21

# A tibble: 857 × 4
    year wlsmd  expm previous
   <dbl> <dbl> <dbl>    <dbl>
 1  2021     1 13.4         3
 2  2021     0  9.62        2
 3  2021     0 NA           0
 4  2021     1  8.82        8
 5  2021     0 11.4         0
 6  2021     1  7.42        8
 7  2021     0 11.9         3
 8  2021     1 13.0         3
 9  2021     0  7.48        6
10  2021     0  4.61        0
# ℹ 847 more rows
…
